<svg xmlns="http://www.w3.org/2000/svg" xmlns:xlink="http://www.w3.org/1999/xlink" width="1080" zoomAndPan="magnify" viewBox="0 0 810 809.999993" height="1080" preserveAspectRatio="xMidYMid meet" version="1.0">
    <defs>
        <clipPath id="38fd053eb3">
            <path d="M 495 259 L 526 259 L 526 289 L 495 289 Z M 495 259 " clip-rule="nonzero"/>
        </clipPath>

        <clipPath id="79a13e08db">
            <path d="M 401.300781 289.265625 L 545.230469 244.429688 L 580.695312 358.285156 L 436.765625 403.117188 Z M 401.300781 289.265625 " clip-rule="nonzero"/>
        </clipPath>

        <clipPath id="3ea2d692e8">
            <path d="M 401.300781 289.265625 L 545.230469 244.429688 L 580.695312 358.285156 L 436.765625 403.117188 Z M 401.300781 289.265625 " clip-rule="nonzero"/>
        </clipPath>

        <clipPath id="c9439f08d7"><path d="M 401.300781 289.265625 L 545.230469 244.429688 L 580.695312 358.285156 L 436.765625 403.117188 Z M 401.300781 289.265625 " clip-rule="nonzero"/></clipPath>

        <clipPath id="13b1e237f0"><path d="M 517 267 L 548 267 L 548 297 L 517 297 Z M 517 267 " clip-rule="nonzero"/></clipPath>

        <clipPath id="e7bca9ca13"><path d="M 401.300781 289.265625 L 545.230469 244.429688 L 580.695312 358.285156 L 436.765625 403.117188 Z M 401.300781 289.265625 " clip-rule="nonzero"/></clipPath>

        <clipPath id="7df80d875b"><path d="M 401.300781 289.265625 L 545.230469 244.429688 L 580.695312 358.285156 L 436.765625 403.117188 Z M 401.300781 289.265625 " clip-rule="nonzero"/></clipPath>

        <clipPath id="17d0579f02"><path d="M 401.300781 289.265625 L 545.230469 244.429688 L 580.695312 358.285156 L 436.765625 403.117188 Z M 401.300781 289.265625 " clip-rule="nonzero"/></clipPath>

        <clipPath id="6dd0ffe164"><path d="M 530 283 L 563 283 L 563 309 L 530 309 Z M 530 283 " clip-rule="nonzero"/></clipPath>

        <clipPath id="9beb8eda0d"><path d="M 401.300781 289.265625 L 545.230469 244.429688 L 580.695312 358.285156 L 436.765625 403.117188 Z M 401.300781 289.265625 " clip-rule="nonzero"/></clipPath>

        <clipPath id="6bc79719d6"><path d="M 401.300781 289.265625 L 545.230469 244.429688 L 580.695312 358.285156 L 436.765625 403.117188 Z M 401.300781 289.265625 " clip-rule="nonzero"/></clipPath>

        <clipPath id="15a393b639"><path d="M 401.300781 289.265625 L 545.230469 244.429688 L 580.695312 358.285156 L 436.765625 403.117188 Z M 401.300781 289.265625 " clip-rule="nonzero"/></clipPath>

        <clipPath id="e38c2e21d9"><path d="M 536 307 L 564 307 L 564 342 L 536 342 Z M 536 307 " clip-rule="nonzero"/></clipPath>

        <clipPath id="60b9cc0412"><path d="M 401.300781 289.265625 L 545.230469 244.429688 L 580.695312 358.285156 L 436.765625 403.117188 Z M 401.300781 289.265625 " clip-rule="nonzero"/></clipPath>

        <clipPath id="3e18223e19"><path d="M 401.300781 289.265625 L 545.230469 244.429688 L 580.695312 358.285156 L 436.765625 403.117188 Z M 401.300781 289.265625 " clip-rule="nonzero"/></clipPath>

        <clipPath id="4534f6e242"><path d="M 401.300781 289.265625 L 545.230469 244.429688 L 580.695312 358.285156 L 436.765625 403.117188 Z M 401.300781 289.265625 " clip-rule="nonzero"/></clipPath>

        <clipPath id="b73af69ae9"><path d="M 515 337 L 552 337 L 552 375 L 515 375 Z M 515 337 " clip-rule="nonzero"/></clipPath>

        <clipPath id="7e7dc5edc3"><path d="M 401.300781 289.265625 L 545.230469 244.429688 L 580.695312 358.285156 L 436.765625 403.117188 Z M 401.300781 289.265625 " clip-rule="nonzero"/></clipPath>
<clipPath id="a526150af8"><path d="M 401.300781 289.265625 L 545.230469 244.429688 L 580.695312 358.285156 L 436.765625 403.117188 Z M 401.300781 289.265625 " clip-rule="nonzero"/></clipPath>
<clipPath id="262603e79a"><path d="M 401.300781 289.265625 L 545.230469 244.429688 L 580.695312 358.285156 L 436.765625 403.117188 Z M 401.300781 289.265625 " clip-rule="nonzero"/></clipPath>
<clipPath id="c7e655b32a"><path d="M 415 264 L 500 264 L 500 324 L 415 324 Z M 415 264 " clip-rule="nonzero"/></clipPath>
<clipPath id="9b3826b684"><path d="M 401.300781 289.265625 L 545.230469 244.429688 L 580.695312 358.285156 L 436.765625 403.117188 Z M 401.300781 289.265625 " clip-rule="nonzero"/></clipPath>
<clipPath id="250f3e1721"><path d="M 401.300781 289.265625 L 545.230469 244.429688 L 580.695312 358.285156 L 436.765625 403.117188 Z M 401.300781 289.265625 " clip-rule="nonzero"/></clipPath>
<clipPath id="2209ecc364"><path d="M 401.300781 289.265625 L 545.230469 244.429688 L 580.695312 358.285156 L 436.765625 403.117188 Z M 401.300781 289.265625 " clip-rule="nonzero"/></clipPath>
<clipPath id="7191981bdc"><path d="M 256 361 L 288 361 L 288 391 L 256 391 Z M 256 361 " clip-rule="nonzero"/></clipPath>
<clipPath id="80e210d811"><path d="M 301.210938 266.078125 L 421.519531 356.914062 L 349.664062 452.085938 L 229.355469 361.246094 Z M 301.210938 266.078125 " clip-rule="nonzero"/></clipPath>
<clipPath id="482d3a1dd1"><path d="M 349.507812 452.363281 L 229.203125 361.527344 L 301.058594 266.359375 L 421.367188 357.195312 Z M 349.507812 452.363281 " clip-rule="nonzero"/></clipPath>
<clipPath id="89440b7a0b"><path d="M 349.507812 452.363281 L 229.203125 361.527344 L 301.058594 266.359375 L 421.367188 357.195312 Z M 349.507812 452.363281 " clip-rule="nonzero"/></clipPath>
<clipPath id="45364c4543"><path d="M 255 338 L 283 338 L 283 362 L 255 362 Z M 255 338 " clip-rule="nonzero"/></clipPath>
<clipPath id="4532c0a40a"><path d="M 301.210938 266.078125 L 421.519531 356.914062 L 349.664062 452.085938 L 229.355469 361.246094 Z M 301.210938 266.078125 " clip-rule="nonzero"/></clipPath>
<clipPath id="88250f4cee"><path d="M 349.507812 452.363281 L 229.203125 361.527344 L 301.058594 266.359375 L 421.367188 357.195312 Z M 349.507812 452.363281 " clip-rule="nonzero"/></clipPath>
<clipPath id="acd9aaa459"><path d="M 349.507812 452.363281 L 229.203125 361.527344 L 301.058594 266.359375 L 421.367188 357.195312 Z M 349.507812 452.363281 " clip-rule="nonzero"/></clipPath>
<clipPath id="4e78fd0c56"><path d="M 257 314 L 287 314 L 287 342 L 257 342 Z M 257 314 " clip-rule="nonzero"/></clipPath>
<clipPath id="ac39976e56"><path d="M 301.210938 266.078125 L 421.519531 356.914062 L 349.664062 452.085938 L 229.355469 361.246094 Z M 301.210938 266.078125 " clip-rule="nonzero"/></clipPath>
<clipPath id="30211ea4e5"><path d="M 349.507812 452.363281 L 229.203125 361.527344 L 301.058594 266.359375 L 421.367188 357.195312 Z M 349.507812 452.363281 " clip-rule="nonzero"/></clipPath>
<clipPath id="d92f0bb699"><path d="M 349.507812 452.363281 L 229.203125 361.527344 L 301.058594 266.359375 L 421.367188 357.195312 Z M 349.507812 452.363281 " clip-rule="nonzero"/></clipPath>
<clipPath id="bfca957ae8"><path d="M 271 296 L 307 296 L 307 328 L 271 328 Z M 271 296 " clip-rule="nonzero"/></clipPath>
<clipPath id="b1b401dac9"><path d="M 301.210938 266.078125 L 421.519531 356.914062 L 349.664062 452.085938 L 229.355469 361.246094 Z M 301.210938 266.078125 " clip-rule="nonzero"/></clipPath>
<clipPath id="17baa367e0"><path d="M 349.507812 452.363281 L 229.203125 361.527344 L 301.058594 266.359375 L 421.367188 357.195312 Z M 349.507812 452.363281 " clip-rule="nonzero"/></clipPath>
<clipPath id="03efaffe55"><path d="M 349.507812 452.363281 L 229.203125 361.527344 L 301.058594 266.359375 L 421.367188 357.195312 Z M 349.507812 452.363281 " clip-rule="nonzero"/></clipPath>
<clipPath id="54e0fe7e25"><path d="M 308 296 L 346 296 L 346 325 L 308 325 Z M 308 296 " clip-rule="nonzero"/></clipPath>
<clipPath id="9c3353daa6"><path d="M 301.210938 266.078125 L 421.519531 356.914062 L 349.664062 452.085938 L 229.355469 361.246094 Z M 301.210938 266.078125 " clip-rule="nonzero"/></clipPath>
<clipPath id="dacae4ceca"><path d="M 349.507812 452.363281 L 229.203125 361.527344 L 301.058594 266.359375 L 421.367188 357.195312 Z M 349.507812 452.363281 " clip-rule="nonzero"/></clipPath>
<clipPath id="e56e0cad89"><path d="M 349.507812 452.363281 L 229.203125 361.527344 L 301.058594 266.359375 L 421.367188 357.195312 Z M 349.507812 452.363281 " clip-rule="nonzero"/></clipPath>
<clipPath id="1e9ec6be19"><path d="M 277 357 L 366 357 L 366 440 L 277 440 Z M 277 357 " clip-rule="nonzero"/></clipPath>
<clipPath id="4ec5209a3f"><path d="M 301.210938 266.078125 L 421.519531 356.914062 L 349.664062 452.085938 L 229.355469 361.246094 Z M 301.210938 266.078125 " clip-rule="nonzero"/></clipPath>
<clipPath id="b52a8fc817"><path d="M 349.507812 452.363281 L 229.203125 361.527344 L 301.058594 266.359375 L 421.367188 357.195312 Z M 349.507812 452.363281 " clip-rule="nonzero"/></clipPath>
<clipPath id="be544d92be"><path d="M 349.507812 452.363281 L 229.203125 361.527344 L 301.058594 266.359375 L 421.367188 357.195312 Z M 349.507812 452.363281 " clip-rule="nonzero"/></clipPath>
<clipPath id="d1af3ead00"><path d="M 458 508 L 487 508 L 487 540 L 458 540 Z M 458 508 " clip-rule="nonzero"/></clipPath>
<clipPath id="34e2b9e690"><path d="M 365.402344 483.941406 L 468.328125 373.796875 L 555.457031 455.21875 L 452.53125 565.363281 Z M 365.402344 483.941406 " clip-rule="nonzero"/></clipPath>
<clipPath id="7ae823da5f"><path d="M 555.71875 455.402344 L 452.792969 565.542969 L 365.664062 484.125 L 468.59375 373.980469 Z M 555.71875 455.402344 " clip-rule="nonzero"/></clipPath>
<clipPath id="999a7e9856"><path d="M 555.71875 455.402344 L 452.792969 565.542969 L 365.664062 484.125 L 468.59375 373.980469 Z M 555.71875 455.402344 " clip-rule="nonzero"/></clipPath>
<clipPath id="24a7af9f6f"><path d="M 433 511 L 456 511 L 456 540 L 433 540 Z M 433 511 " clip-rule="nonzero"/></clipPath>
<clipPath id="4f909fc2b4"><path d="M 365.402344 483.941406 L 468.328125 373.796875 L 555.457031 455.21875 L 452.53125 565.363281 Z M 365.402344 483.941406 " clip-rule="nonzero"/></clipPath>
<clipPath id="eba74ce848"><path d="M 555.71875 455.402344 L 452.792969 565.542969 L 365.664062 484.125 L 468.59375 373.980469 Z M 555.71875 455.402344 " clip-rule="nonzero"/></clipPath>
<clipPath id="e825a916f8"><path d="M 555.71875 455.402344 L 452.792969 565.542969 L 365.664062 484.125 L 468.59375 373.980469 Z M 555.71875 455.402344 " clip-rule="nonzero"/></clipPath>
<clipPath id="fbd893d4df"><path d="M 409 505 L 439 505 L 439 535 L 409 535 Z M 409 505 " clip-rule="nonzero"/></clipPath>
<clipPath id="09fae29429"><path d="M 365.402344 483.941406 L 468.328125 373.796875 L 555.457031 455.21875 L 452.53125 565.363281 Z M 365.402344 483.941406 " clip-rule="nonzero"/></clipPath>
<clipPath id="e5838301d4"><path d="M 555.71875 455.402344 L 452.792969 565.542969 L 365.664062 484.125 L 468.59375 373.980469 Z M 555.71875 455.402344 " clip-rule="nonzero"/></clipPath>
<clipPath id="28f48c5209"><path d="M 555.71875 455.402344 L 452.792969 565.542969 L 365.664062 484.125 L 468.59375 373.980469 Z M 555.71875 455.402344 " clip-rule="nonzero"/></clipPath>
<clipPath id="a0f36c23bc"><path d="M 395 484 L 425 484 L 425 519 L 395 519 Z M 395 484 " clip-rule="nonzero"/></clipPath>
<clipPath id="030d9139c6"><path d="M 365.402344 483.941406 L 468.328125 373.796875 L 555.457031 455.21875 L 452.53125 565.363281 Z M 365.402344 483.941406 " clip-rule="nonzero"/></clipPath>
<clipPath id="35732e8365"><path d="M 555.71875 455.402344 L 452.792969 565.542969 L 365.664062 484.125 L 468.59375 373.980469 Z M 555.71875 455.402344 " clip-rule="nonzero"/></clipPath>
<clipPath id="60eb0a2891"><path d="M 555.71875 455.402344 L 452.792969 565.542969 L 365.664062 484.125 L 468.59375 373.980469 Z M 555.71875 455.402344 " clip-rule="nonzero"/></clipPath>
<clipPath id="b57006ce59"><path d="M 397 443 L 427 443 L 427 481 L 397 481 Z M 397 443 " clip-rule="nonzero"/></clipPath>
<clipPath id="a8effbac08"><path d="M 365.402344 483.941406 L 468.328125 373.796875 L 555.457031 455.21875 L 452.53125 565.363281 Z M 365.402344 483.941406 " clip-rule="nonzero"/></clipPath>
<clipPath id="949cb8a4fa"><path d="M 555.71875 455.402344 L 452.792969 565.542969 L 365.664062 484.125 L 468.59375 373.980469 Z M 555.71875 455.402344 " clip-rule="nonzero"/></clipPath>
<clipPath id="099256e844"><path d="M 555.71875 455.402344 L 452.792969 565.542969 L 365.664062 484.125 L 468.59375 373.980469 Z M 555.71875 455.402344 " clip-rule="nonzero"/></clipPath>
<clipPath id="1228e57c74"><path d="M 458 436 L 542 436 L 542 521 L 458 521 Z M 458 436 " clip-rule="nonzero"/></clipPath>
<clipPath id="8455dfee5e"><path d="M 365.402344 483.941406 L 468.328125 373.796875 L 555.457031 455.21875 L 452.53125 565.363281 Z M 365.402344 483.941406 " clip-rule="nonzero"/></clipPath>
<clipPath id="6a3fa703fe"><path d="M 555.71875 455.402344 L 452.792969 565.542969 L 365.664062 484.125 L 468.59375 373.980469 Z M 555.71875 455.402344 " clip-rule="nonzero"/></clipPath>
<clipPath id="8ded224708"><path d="M 555.71875 455.402344 L 452.792969 565.542969 L 365.664062 484.125 L 468.59375 373.980469 Z M 555.71875 455.402344 " clip-rule="nonzero"/></clipPath>
</defs>
    <g>
    <g clip-path="url(#38fd053eb3)"><g clip-path="url(#79a13e08db)"><g clip-path="url(#3ea2d692e8)">
    <g clip-path="url(#c9439f08d7)">
        <path fill="#000000" d="M 503.050781 285.917969 C 503.160156 286.261719 503.363281 286.539062 503.65625 286.75 C 503.945312 286.960938 504.273438 287.066406 504.636719 287.066406 C 507.152344 287.035156 509.601562 287.429688 511.976562 288.257812 C 512.160156 288.328125 512.347656 288.363281 512.542969 288.363281 C 512.738281 288.363281 512.929688 288.328125 513.109375 288.261719 C 513.292969 288.191406 513.457031 288.09375 513.605469 287.964844 C 513.753906 287.835938 513.871094 287.683594 513.960938 287.511719 L 525.46875 265.65625 C 525.585938 265.433594 525.65625 265.195312 525.679688 264.941406 C 525.699219 264.691406 525.667969 264.445312 525.589844 264.207031 C 525.507812 263.964844 525.382812 263.75 525.214844 263.5625 C 525.042969 263.375 524.84375 263.226562 524.617188 263.121094 C 522.574219 262.136719 520.464844 261.339844 518.28125 260.726562 C 516.101562 260.117188 513.882812 259.703125 511.625 259.484375 C 509.371094 259.261719 507.113281 259.242188 504.851562 259.421875 C 502.589844 259.601562 500.363281 259.976562 498.167969 260.546875 C 497.660156 260.785156 497.210938 261.109375 496.824219 261.519531 C 496.433594 261.929688 496.136719 262.394531 495.929688 262.917969 C 495.722656 263.441406 495.617188 263.984375 495.617188 264.546875 C 495.617188 265.109375 495.722656 265.652344 495.929688 266.175781 C 497.699219 271.0625 501.289062 281.078125 503.050781 285.917969 Z M 503.050781 285.917969 " fill-opacity="1" fill-rule="nonzero"/></g></g></g></g><g clip-path="url(#13b1e237f0)"><g clip-path="url(#e7bca9ca13)"><g clip-path="url(#7df80d875b)"><g clip-path="url(#17d0579f02)"><path fill="#000000" d="M 518.503906 290.566406 L 526.203125 295.816406 C 526.460938 295.996094 526.746094 296.085938 527.058594 296.082031 C 527.371094 296.074219 527.65625 295.980469 527.90625 295.792969 C 527.929688 295.839844 547.378906 280.179688 547.378906 280.179688 C 547.554688 280.039062 547.691406 279.863281 547.789062 279.65625 C 547.882812 279.449219 547.929688 279.234375 547.925781 279.007812 C 547.917969 278.78125 547.863281 278.566406 547.761719 278.363281 C 547.65625 278.160156 547.511719 277.992188 547.328125 277.855469 L 533.136719 267.695312 C 532.949219 267.558594 532.746094 267.445312 532.535156 267.355469 C 532.320312 267.265625 532.097656 267.195312 531.871094 267.152344 C 531.644531 267.105469 531.414062 267.085938 531.179688 267.09375 C 530.949219 267.097656 530.71875 267.125 530.492188 267.179688 C 530.265625 267.234375 530.046875 267.308594 529.839844 267.410156 C 529.628906 267.507812 529.429688 267.628906 529.246094 267.773438 C 529.0625 267.914062 528.894531 268.074219 528.746094 268.25 C 528.597656 268.429688 528.464844 268.621094 528.355469 268.824219 L 518.011719 288.71875 C 517.859375 289.042969 517.832031 289.382812 517.921875 289.730469 C 518.015625 290.078125 518.210938 290.359375 518.503906 290.566406 Z M 518.503906 290.566406 " fill-opacity="1" fill-rule="nonzero"/></g></g></g></g><g clip-path="url(#6dd0ffe164)"><g clip-path="url(#9beb8eda0d)"><g clip-path="url(#6bc79719d6)"><g clip-path="url(#15a393b639)"><path fill="#000000" d="M 553.476562 285.449219 C 553.359375 285.246094 553.222656 285.058594 553.066406 284.886719 C 552.90625 284.714844 552.734375 284.5625 552.542969 284.429688 C 552.355469 284.292969 552.152344 284.183594 551.9375 284.089844 C 551.722656 284 551.5 283.933594 551.273438 283.890625 C 551.042969 283.84375 550.8125 283.828125 550.582031 283.832031 C 550.347656 283.839844 550.117188 283.867188 549.890625 283.925781 C 549.664062 283.980469 549.445312 284.058594 549.238281 284.160156 C 549.027344 284.261719 548.832031 284.382812 548.648438 284.527344 L 530.996094 298.390625 C 530.894531 298.488281 530.800781 298.59375 530.714844 298.710938 C 530.5625 298.949219 530.484375 299.210938 530.480469 299.492188 C 530.480469 299.773438 530.550781 300.035156 530.699219 300.277344 L 535.523438 308.238281 C 536.125 309.296875 537.429688 308.84375 538.351562 308.578125 C 538.664062 308.472656 561.261719 302.707031 561.261719 302.707031 C 561.480469 302.648438 561.679688 302.546875 561.851562 302.398438 C 562.027344 302.25 562.160156 302.070312 562.25 301.863281 C 562.339844 301.652344 562.378906 301.433594 562.363281 301.207031 C 562.351562 300.976562 562.289062 300.765625 562.175781 300.566406 Z M 553.476562 285.449219 " fill-opacity="1" fill-rule="nonzero"/></g></g></g></g><g clip-path="url(#e38c2e21d9)"><g clip-path="url(#60b9cc0412)"><g clip-path="url(#3e18223e19)"><g clip-path="url(#4534f6e242)"><path fill="#000000" d="M 559.519531 307.421875 L 541.292969 311.980469 C 539.390625 312.324219 537.46875 313.101562 537.613281 315.363281 C 538.105469 320.484375 537.730469 325.546875 536.492188 330.546875 C 536.394531 330.871094 536.351562 331.199219 536.367188 331.539062 C 536.386719 331.878906 536.460938 332.203125 536.589844 332.511719 C 536.722656 332.824219 536.90625 333.105469 537.136719 333.351562 C 537.367188 333.601562 537.632812 333.800781 537.933594 333.953125 L 553 341.632812 C 553.367188 341.816406 553.757812 341.921875 554.171875 341.941406 C 554.585938 341.964844 554.984375 341.902344 555.371094 341.753906 C 555.757812 341.609375 556.097656 341.390625 556.390625 341.101562 C 556.6875 340.8125 556.910156 340.476562 557.0625 340.09375 C 559.0625 335.371094 560.578125 330.503906 561.605469 325.480469 C 562.632812 320.460938 563.15625 315.390625 563.171875 310.265625 C 563.167969 310.042969 563.140625 309.824219 563.089844 309.609375 C 563.039062 309.394531 562.964844 309.183594 562.863281 308.984375 C 562.765625 308.785156 562.644531 308.601562 562.503906 308.429688 C 562.363281 308.257812 562.207031 308.101562 562.03125 307.964844 C 561.855469 307.828125 561.667969 307.714844 561.464844 307.621094 C 561.265625 307.523438 561.054688 307.453125 560.835938 307.40625 C 560.621094 307.359375 560.398438 307.335938 560.175781 307.339844 C 559.953125 307.34375 559.734375 307.371094 559.519531 307.421875 Z M 559.519531 307.421875 " fill-opacity="1" fill-rule="nonzero"/></g></g></g></g><g clip-path="url(#b73af69ae9)"><g clip-path="url(#7e7dc5edc3)"><g clip-path="url(#a526150af8)"><g clip-path="url(#262603e79a)"><path fill="#000000" d="M 548.148438 344.867188 C 546.09375 343.628906 536.210938 339.21875 535.019531 337.777344 C 530.105469 342.191406 524.519531 345.445312 518.253906 347.550781 C 517.859375 347.675781 517.492188 347.855469 517.148438 348.085938 C 516.808594 348.316406 516.503906 348.589844 516.242188 348.910156 C 515.976562 349.226562 515.765625 349.578125 515.601562 349.957031 C 515.4375 350.335938 515.332031 350.730469 515.285156 351.140625 C 515.234375 351.550781 515.246094 351.957031 515.3125 352.363281 C 515.382812 352.773438 515.507812 353.160156 515.6875 353.53125 C 515.871094 353.902344 516.101562 354.238281 516.378906 354.542969 C 516.65625 354.847656 516.972656 355.109375 517.328125 355.320312 C 528.640625 361.121094 529.011719 353.648438 523.195312 368.207031 C 523.023438 368.640625 522.921875 369.085938 522.894531 369.550781 C 522.867188 370.011719 522.910156 370.46875 523.03125 370.914062 C 523.148438 371.363281 523.335938 371.78125 523.589844 372.167969 C 523.847656 372.554688 524.15625 372.894531 524.519531 373.179688 C 524.882812 373.46875 525.28125 373.691406 525.71875 373.851562 C 526.152344 374.007812 526.605469 374.097656 527.070312 374.109375 C 527.53125 374.125 527.988281 374.066406 528.433594 373.933594 C 528.878906 373.800781 529.289062 373.601562 529.671875 373.335938 C 534.914062 369.464844 542.894531 361.628906 551.367188 346.050781 C 550.214844 345.871094 549.140625 345.476562 548.148438 344.867188 Z M 548.148438 344.867188 " fill-opacity="1" fill-rule="nonzero"/></g></g></g></g><g clip-path="url(#c7e655b32a)"><g clip-path="url(#9b3826b684)"><g clip-path="url(#250f3e1721)"><g clip-path="url(#2209ecc364)"><path fill="#000000" d="M 498.179688 292.386719 C 498.519531 292.144531 498.808594 291.855469 499.054688 291.519531 C 499.296875 291.1875 499.484375 290.820312 499.613281 290.425781 C 499.742188 290.03125 499.804688 289.628906 499.800781 289.214844 C 499.800781 288.800781 499.734375 288.394531 499.601562 288.003906 C 497.703125 282.792969 493.566406 271.789062 491.644531 266.519531 C 491.558594 266.292969 491.453125 266.078125 491.324219 265.875 C 491.195312 265.667969 491.050781 265.476562 490.882812 265.304688 C 490.714844 265.128906 490.535156 264.972656 490.335938 264.832031 C 490.136719 264.695312 489.925781 264.578125 489.703125 264.480469 C 489.480469 264.382812 489.253906 264.3125 489.015625 264.261719 C 488.777344 264.210938 488.539062 264.1875 488.296875 264.183594 C 488.054688 264.183594 487.8125 264.207031 487.578125 264.253906 C 487.339844 264.300781 487.109375 264.371094 486.882812 264.460938 C 474.886719 269.546875 445.609375 281.957031 432.757812 287.160156 C 432.355469 287.324219 432.140625 287.625 432.109375 288.054688 C 432.078125 288.488281 432.25 288.816406 432.625 289.035156 C 434.199219 289.914062 435.828125 290.671875 437.515625 291.304688 C 435.660156 292.308594 431.652344 294.273438 429.8125 295.265625 C 429.488281 295.425781 429.148438 295.550781 428.800781 295.640625 C 428.449219 295.730469 428.089844 295.785156 427.730469 295.796875 C 427.367188 295.8125 427.007812 295.789062 426.652344 295.726562 C 426.292969 295.664062 425.949219 295.566406 425.613281 295.429688 C 425.277344 295.296875 424.957031 295.128906 424.65625 294.925781 C 424.359375 294.722656 424.082031 294.492188 423.832031 294.230469 C 423.582031 293.96875 423.359375 293.683594 423.171875 293.378906 C 422.980469 293.070312 422.824219 292.746094 422.703125 292.40625 C 422.582031 292.066406 422.5 291.714844 422.453125 291.355469 C 422.40625 290.996094 422.394531 290.636719 422.425781 290.277344 C 422.457031 289.917969 422.523438 289.5625 422.628906 289.21875 C 422.730469 288.871094 422.871094 288.539062 423.046875 288.222656 C 423.222656 287.90625 423.429688 287.609375 423.667969 287.339844 C 423.90625 287.066406 424.167969 286.820312 424.457031 286.601562 C 424.75 286.386719 425.058594 286.199219 425.386719 286.046875 C 425.714844 285.898438 426.058594 285.78125 426.410156 285.703125 C 426.683594 285.609375 426.925781 285.46875 427.136719 285.273438 C 427.347656 285.082031 427.511719 284.855469 427.628906 284.59375 C 427.742188 284.332031 427.800781 284.058594 427.800781 283.769531 C 427.800781 283.484375 427.742188 283.210938 427.628906 282.949219 C 427.511719 282.6875 427.347656 282.460938 427.136719 282.269531 C 426.925781 282.078125 426.683594 281.933594 426.410156 281.84375 C 426.140625 281.753906 425.859375 281.722656 425.574219 281.75 C 425.289062 281.773438 425.023438 281.859375 424.769531 281.996094 C 412.394531 286.449219 419.746094 304.363281 431.664062 298.839844 L 442.757812 293.148438 C 445.089844 293.890625 447.46875 294.554688 449.859375 295.132812 C 449.75 295.242188 449.652344 295.347656 449.539062 295.464844 C 444.832031 300.300781 437.1875 308.035156 427.527344 317.703125 C 427.097656 318.121094 426.609375 318.445312 426.058594 318.683594 C 425.511719 318.921875 424.9375 319.054688 424.34375 319.082031 C 423.746094 319.113281 423.164062 319.03125 422.59375 318.847656 C 422.027344 318.664062 421.511719 318.382812 421.046875 318.007812 C 420.582031 317.636719 420.199219 317.191406 419.898438 316.675781 C 419.59375 316.164062 419.394531 315.609375 419.296875 315.023438 C 419.195312 314.433594 419.207031 313.847656 419.320312 313.261719 C 419.4375 312.679688 419.65625 312.132812 419.972656 311.625 L 421.460938 309.351562 C 421.597656 309.125 421.6875 308.886719 421.730469 308.625 C 421.773438 308.367188 421.769531 308.109375 421.710938 307.851562 C 421.652344 307.59375 421.546875 307.359375 421.398438 307.144531 C 421.246094 306.925781 421.0625 306.746094 420.839844 306.605469 C 420.617188 306.460938 420.378906 306.367188 420.121094 306.316406 C 419.859375 306.265625 419.601562 306.269531 419.34375 306.320312 C 419.085938 306.371094 418.847656 306.472656 418.625 306.617188 C 418.40625 306.761719 418.222656 306.941406 418.074219 307.160156 L 416.589844 309.457031 C 410.953125 318.289062 422.828125 328.058594 430.375 320.546875 C 437.648438 313.265625 448.722656 302.132812 454.394531 296.238281 C 461.828125 297.875 467.351562 298.964844 472.238281 299.574219 L 468.855469 310.414062 C 468.566406 311.339844 468.480469 312.285156 468.597656 313.25 C 468.71875 314.210938 469.03125 315.105469 469.542969 315.933594 L 473.515625 322.449219 C 473.65625 322.671875 473.832031 322.859375 474.046875 323.011719 C 474.261719 323.164062 474.5 323.269531 474.753906 323.332031 C 475.011719 323.390625 475.269531 323.402344 475.53125 323.359375 C 475.792969 323.316406 476.035156 323.230469 476.261719 323.09375 C 476.484375 322.957031 476.675781 322.78125 476.835938 322.570312 C 476.992188 322.359375 477.105469 322.125 477.167969 321.871094 C 477.234375 321.617188 477.25 321.359375 477.214844 321.097656 C 477.179688 320.835938 477.09375 320.59375 476.964844 320.363281 L 472.984375 313.828125 C 472.554688 313.132812 472.464844 312.394531 472.714844 311.613281 L 476.609375 299.109375 C 476.714844 299.078125 483.320312 297.035156 483.320312 297.035156 L 480.257812 306.863281 C 479.976562 307.789062 479.894531 308.734375 480.011719 309.695312 C 480.132812 310.65625 480.441406 311.554688 480.941406 312.382812 L 484.914062 318.898438 C 485.054688 319.121094 485.234375 319.308594 485.449219 319.460938 C 485.664062 319.613281 485.898438 319.71875 486.15625 319.78125 C 486.410156 319.839844 486.667969 319.847656 486.929688 319.808594 C 487.191406 319.765625 487.433594 319.675781 487.660156 319.539062 C 487.882812 319.40625 488.074219 319.230469 488.234375 319.019531 C 488.390625 318.808594 488.503906 318.574219 488.566406 318.320312 C 488.632812 318.066406 488.648438 317.808594 488.613281 317.546875 C 488.578125 317.285156 488.492188 317.042969 488.363281 316.816406 L 484.382812 310.277344 C 483.964844 309.578125 483.875 308.839844 484.117188 308.0625 C 484.953125 305.136719 487.152344 298.433594 488 295.578125 C 488.109375 295.523438 493.507812 293.863281 493.507812 293.863281 L 490.449219 303.710938 C 490.160156 304.632812 490.074219 305.574219 490.191406 306.535156 C 490.3125 307.492188 490.621094 308.386719 491.125 309.210938 L 495.101562 315.726562 C 495.242188 315.949219 495.417969 316.136719 495.632812 316.289062 C 495.847656 316.441406 496.085938 316.546875 496.339844 316.605469 C 496.597656 316.664062 496.855469 316.675781 497.117188 316.632812 C 497.375 316.59375 497.617188 316.503906 497.84375 316.367188 C 498.070312 316.230469 498.261719 316.058594 498.417969 315.84375 C 498.574219 315.632812 498.6875 315.402344 498.753906 315.148438 C 498.820312 314.890625 498.832031 314.632812 498.796875 314.375 C 498.761719 314.113281 498.679688 313.871094 498.546875 313.640625 L 494.570312 307.105469 C 494.140625 306.410156 494.050781 305.671875 494.300781 304.890625 Z M 463.300781 287.152344 C 463.097656 287.324219 462.867188 287.453125 462.609375 287.535156 C 462.355469 287.613281 462.09375 287.644531 461.824219 287.621094 C 461.558594 287.597656 461.304688 287.523438 461.066406 287.398438 C 460.828125 287.273438 460.625 287.105469 460.457031 286.898438 L 458.351562 284.414062 C 458.179688 284.210938 458.050781 283.984375 457.96875 283.730469 C 457.886719 283.476562 457.859375 283.214844 457.878906 282.949219 C 457.902344 282.683594 457.976562 282.433594 458.097656 282.195312 C 458.21875 281.957031 458.382812 281.753906 458.585938 281.582031 C 458.792969 281.40625 459.019531 281.28125 459.273438 281.199219 C 459.527344 281.117188 459.789062 281.085938 460.054688 281.109375 C 460.320312 281.132812 460.574219 281.203125 460.8125 281.324219 C 461.050781 281.445312 461.253906 281.609375 461.425781 281.8125 L 463.539062 284.316406 C 463.710938 284.519531 463.835938 284.75 463.914062 285.003906 C 463.996094 285.257812 464.027344 285.515625 464.003906 285.78125 C 463.980469 286.046875 463.910156 286.296875 463.789062 286.535156 C 463.667969 286.773438 463.503906 286.976562 463.300781 287.152344 Z M 463.300781 287.152344 " fill-opacity="1" fill-rule="nonzero"/></g></g></g></g><g clip-path="url(#7191981bdc)"><g clip-path="url(#80e210d811)"><g clip-path="url(#482d3a1dd1)"><g clip-path="url(#89440b7a0b)"><path fill="#000000" d="M 287.496094 371.628906 C 287.710938 371.339844 287.816406 371.011719 287.820312 370.652344 C 287.824219 370.292969 287.71875 369.964844 287.507812 369.671875 C 286.011719 367.644531 284.910156 365.425781 284.195312 363.011719 C 284.144531 362.824219 284.066406 362.648438 283.953125 362.488281 C 283.835938 362.332031 283.699219 362.195312 283.539062 362.089844 C 283.375 361.980469 283.199219 361.902344 283.007812 361.859375 C 282.820312 361.8125 282.625 361.804688 282.433594 361.832031 L 257.96875 365.21875 C 257.714844 365.25 257.480469 365.332031 257.265625 365.464844 C 257.046875 365.59375 256.867188 365.761719 256.71875 365.964844 C 256.570312 366.171875 256.46875 366.398438 256.414062 366.644531 C 256.359375 366.890625 256.355469 367.140625 256.402344 367.390625 C 256.792969 369.621094 257.375 371.800781 258.148438 373.929688 C 258.925781 376.058594 259.878906 378.105469 261.015625 380.066406 C 262.152344 382.027344 263.453125 383.875 264.914062 385.605469 C 266.375 387.339844 267.980469 388.929688 269.722656 390.378906 C 270.214844 390.65625 270.738281 390.832031 271.296875 390.910156 C 271.855469 390.984375 272.410156 390.953125 272.957031 390.820312 C 273.5 390.683594 274.003906 390.449219 274.460938 390.121094 C 274.917969 389.792969 275.296875 389.394531 275.601562 388.917969 C 278.542969 384.632812 284.589844 375.878906 287.496094 371.628906 Z M 287.496094 371.628906 " fill-opacity="1" fill-rule="nonzero"/></g></g></g></g><g clip-path="url(#45364c4543)"><g clip-path="url(#4532c0a40a)"><g clip-path="url(#88250f4cee)"><g clip-path="url(#acd9aaa459)"><path fill="#000000" d="M 282.265625 356.359375 L 282.050781 347.042969 C 282.046875 346.730469 281.949219 346.449219 281.765625 346.195312 C 281.578125 345.945312 281.335938 345.769531 281.035156 345.675781 C 281.0625 345.628906 257.003906 338.949219 257.003906 338.949219 C 256.78125 338.886719 256.5625 338.878906 256.335938 338.921875 C 256.113281 338.964844 255.910156 339.054688 255.730469 339.191406 C 255.546875 339.324219 255.40625 339.496094 255.300781 339.699219 C 255.199219 339.898438 255.144531 340.113281 255.140625 340.34375 L 255.152344 357.796875 C 255.15625 358.03125 255.179688 358.257812 255.230469 358.488281 C 255.28125 358.714844 255.355469 358.933594 255.449219 359.144531 C 255.546875 359.355469 255.664062 359.554688 255.804688 359.738281 C 255.945312 359.925781 256.101562 360.09375 256.277344 360.246094 C 256.453125 360.402344 256.640625 360.53125 256.84375 360.644531 C 257.046875 360.757812 257.261719 360.847656 257.484375 360.914062 C 257.707031 360.980469 257.933594 361.023438 258.164062 361.042969 C 258.398438 361.0625 258.628906 361.054688 258.859375 361.023438 L 281.050781 357.839844 C 281.40625 357.773438 281.699219 357.597656 281.929688 357.320312 C 282.15625 357.042969 282.269531 356.722656 282.265625 356.359375 Z M 282.265625 356.359375 " fill-opacity="1" fill-rule="nonzero"/></g></g></g></g><g clip-path="url(#4e78fd0c56)"><g clip-path="url(#ac39976e56)"><g clip-path="url(#30211ea4e5)"><g clip-path="url(#d92f0bb699)"><path fill="#000000" d="M 257.726562 330.925781 C 257.632812 331.136719 257.5625 331.355469 257.515625 331.585938 C 257.464844 331.8125 257.441406 332.042969 257.445312 332.273438 C 257.445312 332.507812 257.472656 332.738281 257.523438 332.964844 C 257.574219 333.191406 257.648438 333.410156 257.746094 333.621094 C 257.84375 333.835938 257.964844 334.03125 258.105469 334.21875 C 258.242188 334.40625 258.402344 334.574219 258.578125 334.726562 C 258.757812 334.878906 258.945312 335.007812 259.152344 335.121094 C 259.355469 335.230469 259.570312 335.320312 259.792969 335.382812 L 281.347656 341.648438 C 281.488281 341.675781 281.628906 341.691406 281.769531 341.691406 C 282.050781 341.675781 282.308594 341.585938 282.539062 341.425781 C 282.773438 341.265625 282.941406 341.054688 283.054688 340.792969 L 286.710938 332.234375 C 287.222656 331.125 286.089844 330.328125 285.335938 329.734375 C 285.070312 329.542969 267.21875 314.542969 267.21875 314.542969 C 267.042969 314.394531 266.84375 314.292969 266.621094 314.238281 C 266.402344 314.183594 266.179688 314.179688 265.957031 314.230469 C 265.730469 314.277344 265.53125 314.375 265.355469 314.519531 C 265.175781 314.660156 265.039062 314.835938 264.945312 315.042969 Z M 257.726562 330.925781 " fill-opacity="1" fill-rule="nonzero"/></g></g></g></g><g clip-path="url(#bfca957ae8)"><g clip-path="url(#b1b401dac9)"><g clip-path="url(#17baa367e0)"><g clip-path="url(#03efaffe55)"><path fill="#000000" d="M 272.066406 313.210938 L 286.390625 325.363281 C 287.78125 326.707031 289.53125 327.816406 291.28125 326.382812 C 295.160156 322.996094 299.492188 320.351562 304.273438 318.445312 C 304.597656 318.335938 304.890625 318.179688 305.15625 317.96875 C 305.417969 317.757812 305.640625 317.507812 305.816406 317.21875 C 305.992188 316.929688 306.113281 316.617188 306.179688 316.289062 C 306.246094 315.957031 306.253906 315.621094 306.203125 315.285156 L 303.664062 298.570312 C 303.601562 298.160156 303.457031 297.785156 303.234375 297.4375 C 303.011719 297.089844 302.726562 296.800781 302.382812 296.570312 C 302.039062 296.34375 301.664062 296.195312 301.257812 296.121094 C 300.851562 296.050781 300.445312 296.066406 300.046875 296.164062 C 295.042969 297.289062 290.203125 298.898438 285.523438 300.988281 C 280.84375 303.078125 276.421875 305.609375 272.246094 308.582031 C 272.070312 308.714844 271.90625 308.863281 271.761719 309.03125 C 271.613281 309.199219 271.492188 309.382812 271.386719 309.578125 C 271.28125 309.773438 271.199219 309.980469 271.140625 310.195312 C 271.085938 310.410156 271.050781 310.628906 271.042969 310.847656 C 271.035156 311.070312 271.050781 311.292969 271.089844 311.511719 C 271.132812 311.730469 271.195312 311.941406 271.285156 312.144531 C 271.371094 312.351562 271.484375 312.542969 271.613281 312.722656 C 271.746094 312.902344 271.894531 313.0625 272.066406 313.210938 Z M 272.066406 313.210938 " fill-opacity="1" fill-rule="nonzero"/></g></g></g></g><g clip-path="url(#54e0fe7e25)"><g clip-path="url(#9c3353daa6)"><g clip-path="url(#dacae4ceca)"><g clip-path="url(#e56e0cad89)"><path fill="#000000" d="M 309.121094 300.628906 C 309.3125 303.019531 311.488281 313.617188 311.011719 315.425781 C 317.457031 316.847656 323.363281 319.492188 328.722656 323.355469 C 329.050781 323.605469 329.410156 323.800781 329.800781 323.941406 C 330.1875 324.085938 330.585938 324.171875 331 324.199219 C 331.410156 324.230469 331.820312 324.199219 332.222656 324.109375 C 332.625 324.023438 333.007812 323.878906 333.371094 323.679688 C 333.730469 323.480469 334.058594 323.234375 334.347656 322.941406 C 334.636719 322.648438 334.882812 322.320312 335.078125 321.957031 C 335.273438 321.59375 335.414062 321.210938 335.5 320.804688 C 335.582031 320.402344 335.609375 319.992188 335.578125 319.582031 C 333.699219 307.007812 327.410156 311.0625 342.632812 307.304688 C 343.082031 307.191406 343.503906 307.015625 343.894531 306.765625 C 344.289062 306.519531 344.632812 306.21875 344.925781 305.859375 C 345.21875 305.5 345.449219 305.105469 345.617188 304.675781 C 345.785156 304.242188 345.878906 303.792969 345.898438 303.332031 C 345.921875 302.867188 345.871094 302.410156 345.746094 301.964844 C 345.621094 301.519531 345.429688 301.101562 345.167969 300.714844 C 344.910156 300.332031 344.597656 299.996094 344.230469 299.710938 C 343.863281 299.425781 343.460938 299.207031 343.023438 299.050781 C 336.820312 297.046875 325.800781 295.128906 308.207031 297.320312 C 308.730469 298.363281 309.035156 299.464844 309.121094 300.628906 Z M 309.121094 300.628906 " fill-opacity="1" fill-rule="nonzero"/></g></g></g></g><g clip-path="url(#1e9ec6be19)"><g clip-path="url(#4ec5209a3f)"><g clip-path="url(#b52a8fc817)"><g clip-path="url(#be544d92be)"><path fill="#000000" d="M 295.589844 371.816406 C 295.199219 371.683594 294.792969 371.613281 294.378906 371.613281 C 293.964844 371.609375 293.558594 371.667969 293.164062 371.792969 C 292.769531 371.921875 292.402344 372.105469 292.066406 372.347656 C 291.730469 372.589844 291.441406 372.878906 291.199219 373.214844 C 288.074219 377.792969 281.539062 387.570312 278.378906 392.203125 C 278.246094 392.402344 278.132812 392.613281 278.039062 392.839844 C 277.949219 393.0625 277.878906 393.292969 277.835938 393.53125 C 277.789062 393.769531 277.769531 394.007812 277.769531 394.25 C 277.773438 394.492188 277.800781 394.730469 277.851562 394.96875 C 277.90625 395.203125 277.980469 395.433594 278.078125 395.65625 C 278.175781 395.875 278.292969 396.085938 278.433594 396.285156 C 278.574219 396.480469 278.730469 396.664062 278.90625 396.828125 C 279.085938 396.996094 279.277344 397.140625 279.480469 397.269531 C 290.605469 404.054688 317.75 420.617188 329.46875 428.027344 C 329.835938 428.257812 330.207031 428.261719 330.574219 428.03125 C 330.945312 427.804688 331.109375 427.476562 331.070312 427.042969 C 330.867188 425.253906 330.53125 423.488281 330.066406 421.746094 C 331.960938 422.671875 335.894531 424.785156 337.769531 425.699219 C 338.089844 425.867188 338.390625 426.070312 338.667969 426.304688 C 338.945312 426.535156 339.195312 426.796875 339.417969 427.082031 C 339.640625 427.367188 339.832031 427.671875 339.988281 428 C 340.148438 428.324219 340.269531 428.664062 340.355469 429.015625 C 340.441406 429.367188 340.488281 429.722656 340.5 430.085938 C 340.511719 430.449219 340.480469 430.804688 340.417969 431.160156 C 340.351562 431.515625 340.246094 431.863281 340.109375 432.195312 C 339.96875 432.53125 339.796875 432.84375 339.589844 433.140625 C 339.382812 433.4375 339.148438 433.710938 338.886719 433.957031 C 338.621094 434.203125 338.332031 434.421875 338.023438 434.609375 C 337.714844 434.792969 337.386719 434.945312 337.042969 435.0625 C 336.703125 435.179688 336.351562 435.257812 335.992188 435.300781 C 335.632812 435.34375 335.273438 435.347656 334.910156 435.3125 C 334.550781 435.277344 334.199219 435.207031 333.851562 435.097656 C 333.507812 434.988281 333.175781 434.84375 332.859375 434.664062 C 332.546875 434.488281 332.253906 434.277344 331.980469 434.035156 C 331.75 433.867188 331.492188 433.753906 331.214844 433.695312 C 330.933594 433.636719 330.652344 433.636719 330.371094 433.695312 C 330.09375 433.753906 329.835938 433.863281 329.601562 434.03125 C 329.371094 434.199219 329.183594 434.40625 329.039062 434.652344 C 328.890625 434.898438 328.804688 435.164062 328.769531 435.449219 C 328.738281 435.730469 328.761719 436.011719 328.847656 436.285156 C 328.933594 436.558594 329.070312 436.800781 329.257812 437.019531 C 329.445312 437.234375 329.667969 437.40625 329.929688 437.527344 C 340.757812 444.992188 351.03125 428.578125 339.597656 422.109375 L 328.507812 416.410156 C 327.753906 414.085938 326.90625 411.765625 325.980469 409.484375 C 326.136719 409.507812 326.277344 409.527344 326.4375 409.554688 C 333.109375 410.558594 343.851562 412.261719 357.339844 414.480469 C 357.925781 414.585938 358.476562 414.792969 358.988281 415.101562 C 359.503906 415.40625 359.945312 415.792969 360.316406 416.261719 C 360.6875 416.730469 360.960938 417.25 361.140625 417.820312 C 361.324219 418.390625 361.398438 418.972656 361.363281 419.566406 C 361.332031 420.164062 361.191406 420.734375 360.949219 421.277344 C 360.707031 421.824219 360.378906 422.308594 359.957031 422.730469 C 359.535156 423.152344 359.054688 423.488281 358.511719 423.734375 C 357.96875 423.980469 357.398438 424.125 356.800781 424.160156 L 354.085938 424.277344 C 353.824219 424.296875 353.574219 424.363281 353.339844 424.480469 C 353.101562 424.59375 352.894531 424.75 352.722656 424.949219 C 352.546875 425.144531 352.414062 425.367188 352.328125 425.613281 C 352.242188 425.863281 352.203125 426.117188 352.214844 426.382812 C 352.226562 426.644531 352.289062 426.894531 352.402344 427.132812 C 352.511719 427.375 352.664062 427.582031 352.855469 427.761719 C 353.050781 427.941406 353.269531 428.078125 353.515625 428.171875 C 353.761719 428.265625 354.015625 428.3125 354.28125 428.304688 L 357.007812 428.171875 C 367.472656 427.609375 368.492188 412.265625 357.988281 410.507812 C 347.835938 408.84375 332.335938 406.328125 324.238281 405.152344 C 321.234375 398.160156 318.902344 393.039062 316.550781 388.710938 L 327.328125 385.140625 C 328.253906 384.835938 329.070312 384.355469 329.785156 383.699219 C 330.496094 383.039062 331.039062 382.265625 331.414062 381.367188 L 334.398438 374.339844 C 334.496094 374.097656 334.542969 373.84375 334.542969 373.578125 C 334.539062 373.316406 334.488281 373.0625 334.390625 372.820312 C 334.289062 372.578125 334.144531 372.359375 333.960938 372.171875 C 333.773438 371.984375 333.558594 371.839844 333.316406 371.734375 C 333.074219 371.632812 332.824219 371.578125 332.558594 371.574219 C 332.296875 371.570312 332.042969 371.613281 331.796875 371.710938 C 331.550781 371.804688 331.332031 371.941406 331.140625 372.125 C 330.949219 372.304688 330.800781 372.515625 330.691406 372.753906 L 327.699219 379.796875 C 327.382812 380.550781 326.835938 381.054688 326.054688 381.304688 L 313.625 385.429688 C 313.539062 385.363281 308.027344 381.183594 308.027344 381.183594 L 317.800781 377.945312 C 318.71875 377.632812 319.535156 377.152344 320.246094 376.492188 C 320.957031 375.835938 321.503906 375.0625 321.886719 374.175781 L 324.867188 367.148438 C 324.964844 366.902344 325.015625 366.648438 325.011719 366.386719 C 325.011719 366.121094 324.960938 365.871094 324.859375 365.625 C 324.757812 365.382812 324.617188 365.167969 324.429688 364.980469 C 324.246094 364.792969 324.03125 364.648438 323.789062 364.542969 C 323.546875 364.4375 323.292969 364.386719 323.03125 364.378906 C 322.765625 364.375 322.511719 364.421875 322.269531 364.515625 C 322.023438 364.609375 321.804688 364.75 321.613281 364.929688 C 321.421875 365.109375 321.273438 365.320312 321.164062 365.558594 L 318.171875 372.601562 C 317.847656 373.351562 317.300781 373.851562 316.527344 374.109375 C 313.660156 375.136719 306.929688 377.253906 304.117188 378.230469 C 304.007812 378.171875 299.515625 374.753906 299.515625 374.753906 L 309.296875 371.5 C 310.21875 371.199219 311.03125 370.71875 311.742188 370.0625 C 312.453125 369.410156 312.996094 368.636719 313.375 367.746094 L 316.355469 360.71875 C 316.453125 360.472656 316.5 360.21875 316.5 359.957031 C 316.496094 359.695312 316.445312 359.441406 316.34375 359.199219 C 316.242188 358.953125 316.101562 358.738281 315.914062 358.550781 C 315.730469 358.363281 315.515625 358.21875 315.273438 358.117188 C 315.03125 358.011719 314.78125 357.957031 314.515625 357.953125 C 314.253906 357.949219 314 357.992188 313.753906 358.085938 C 313.507812 358.183594 313.289062 358.320312 313.097656 358.5 C 312.90625 358.683594 312.757812 358.890625 312.648438 359.132812 L 309.65625 366.175781 C 309.339844 366.929688 308.792969 367.433594 308.011719 367.683594 Z M 311.664062 403.214844 C 311.921875 403.277344 312.160156 403.390625 312.375 403.550781 C 312.589844 403.710938 312.765625 403.90625 312.902344 404.140625 C 313.039062 404.371094 313.128906 404.617188 313.164062 404.882812 C 313.199219 405.152344 313.183594 405.414062 313.117188 405.671875 L 312.324219 408.832031 C 312.257812 409.089844 312.148438 409.324219 311.988281 409.539062 C 311.828125 409.753906 311.636719 409.929688 311.40625 410.066406 C 311.175781 410.203125 310.929688 410.289062 310.667969 410.328125 C 310.402344 410.367188 310.140625 410.355469 309.882812 410.289062 C 309.625 410.222656 309.386719 410.113281 309.171875 409.953125 C 308.957031 409.792969 308.78125 409.597656 308.644531 409.371094 C 308.507812 409.140625 308.417969 408.894531 308.378906 408.632812 C 308.339844 408.367188 308.351562 408.105469 308.417969 407.847656 L 309.222656 404.671875 C 309.285156 404.414062 309.398438 404.179688 309.558594 403.964844 C 309.71875 403.75 309.910156 403.578125 310.140625 403.441406 C 310.367188 403.304688 310.613281 403.214844 310.878906 403.175781 C 311.140625 403.136719 311.402344 403.148438 311.664062 403.214844 Z M 311.664062 403.214844 " fill-opacity="1" fill-rule="nonzero"/></g></g></g></g><g clip-path="url(#d1af3ead00)"><g clip-path="url(#34e2b9e690)"><g clip-path="url(#7ae823da5f)"><g clip-path="url(#999a7e9856)"><path fill="#000000" d="M 468.9375 508.628906 C 468.671875 508.382812 468.359375 508.242188 468 508.203125 C 467.644531 508.160156 467.308594 508.230469 466.992188 508.410156 C 464.820312 509.683594 462.496094 510.550781 460.023438 511.007812 C 459.832031 511.035156 459.648438 511.097656 459.480469 511.195312 C 459.308594 511.292969 459.160156 511.414062 459.035156 511.566406 C 458.910156 511.714844 458.816406 511.882812 458.753906 512.066406 C 458.6875 512.25 458.660156 512.441406 458.664062 512.636719 L 459.472656 537.324219 C 459.480469 537.574219 459.539062 537.816406 459.644531 538.046875 C 459.75 538.277344 459.898438 538.476562 460.085938 538.644531 C 460.277344 538.8125 460.492188 538.9375 460.730469 539.015625 C 460.96875 539.097656 461.214844 539.125 461.46875 539.105469 C 463.730469 538.953125 465.957031 538.601562 468.15625 538.050781 C 470.355469 537.503906 472.488281 536.769531 474.558594 535.84375 C 476.628906 534.917969 478.601562 533.820312 480.476562 532.546875 C 482.351562 531.273438 484.101562 529.847656 485.726562 528.265625 C 486.054688 527.804688 486.285156 527.300781 486.417969 526.753906 C 486.550781 526.207031 486.578125 525.652344 486.5 525.09375 C 486.421875 524.539062 486.246094 524.015625 485.96875 523.523438 C 485.6875 523.035156 485.328125 522.617188 484.890625 522.265625 C 480.9375 518.890625 472.863281 511.960938 468.9375 508.628906 Z M 468.9375 508.628906 " fill-opacity="1" fill-rule="nonzero"/></g></g></g></g><g clip-path="url(#24a7af9f6f)"><g clip-path="url(#4f909fc2b4)"><g clip-path="url(#eba74ce848)"><g clip-path="url(#e825a916f8)"><path fill="#000000" d="M 453.207031 512.230469 L 443.917969 511.472656 C 443.609375 511.441406 443.316406 511.507812 443.046875 511.664062 C 442.777344 511.824219 442.578125 512.046875 442.453125 512.335938 C 442.40625 512.304688 433.246094 535.535156 433.246094 535.535156 C 433.164062 535.746094 433.132812 535.964844 433.152344 536.191406 C 433.167969 536.417969 433.238281 536.628906 433.355469 536.824219 C 433.46875 537.019531 433.625 537.179688 433.8125 537.304688 C 434.003906 537.425781 434.214844 537.503906 434.4375 537.53125 L 451.800781 539.34375 C 452.03125 539.367188 452.261719 539.367188 452.492188 539.339844 C 452.722656 539.3125 452.949219 539.265625 453.167969 539.191406 C 453.390625 539.117188 453.597656 539.019531 453.800781 538.898438 C 454 538.78125 454.183594 538.640625 454.355469 538.484375 C 454.523438 538.324219 454.675781 538.152344 454.808594 537.960938 C 454.941406 537.769531 455.054688 537.566406 455.144531 537.351562 C 455.234375 537.136719 455.300781 536.917969 455.339844 536.6875 C 455.382812 536.460938 455.402344 536.230469 455.394531 535.996094 L 454.550781 513.59375 C 454.519531 513.234375 454.378906 512.925781 454.125 512.667969 C 453.875 512.410156 453.566406 512.261719 453.207031 512.230469 Z M 453.207031 512.230469 " fill-opacity="1" fill-rule="nonzero"/></g></g></g></g><g clip-path="url(#fbd893d4df)"><g clip-path="url(#09fae29429)"><g clip-path="url(#e5838301d4)"><g clip-path="url(#28f48c5209)"><path fill="#000000" d="M 425.34375 533.972656 C 425.546875 534.089844 425.757812 534.183594 425.976562 534.253906 C 426.199219 534.324219 426.425781 534.371094 426.65625 534.394531 C 426.886719 534.417969 427.121094 534.417969 427.351562 534.390625 C 427.582031 534.363281 427.808594 534.3125 428.027344 534.238281 C 428.25 534.160156 428.460938 534.0625 428.660156 533.941406 C 428.859375 533.824219 429.042969 533.683594 429.210938 533.523438 C 429.382812 533.363281 429.53125 533.1875 429.664062 532.996094 C 429.796875 532.804688 429.90625 532.597656 429.996094 532.382812 L 438.480469 511.605469 C 438.523438 511.46875 438.550781 511.328125 438.566406 511.1875 C 438.582031 510.90625 438.519531 510.640625 438.382812 510.394531 C 438.246094 510.148438 438.054688 509.953125 437.808594 509.816406 L 429.679688 505.285156 C 428.628906 504.660156 427.71875 505.703125 427.050781 506.390625 C 426.832031 506.636719 410.042969 522.820312 410.042969 522.820312 C 409.878906 522.980469 409.757812 523.164062 409.679688 523.378906 C 409.601562 523.59375 409.574219 523.816406 409.601562 524.042969 C 409.625 524.269531 409.703125 524.480469 409.824219 524.671875 C 409.949219 524.863281 410.109375 525.015625 410.304688 525.132812 Z M 425.34375 533.972656 " fill-opacity="1" fill-rule="nonzero"/></g></g></g></g><g clip-path="url(#a0f36c23bc)"><g clip-path="url(#030d9139c6)"><g clip-path="url(#35732e8365)"><g clip-path="url(#60eb0a2891)"><path fill="#000000" d="M 409.226562 517.859375 L 422.8125 504.882812 C 424.296875 503.644531 425.582031 502.019531 424.335938 500.128906 C 421.375 495.917969 419.199219 491.332031 417.800781 486.375 C 417.730469 486.042969 417.601562 485.734375 417.417969 485.449219 C 417.238281 485.164062 417.011719 484.917969 416.742188 484.714844 C 416.476562 484.507812 416.179688 484.355469 415.855469 484.253906 C 415.53125 484.152344 415.203125 484.109375 414.863281 484.125 L 397.972656 484.902344 C 397.558594 484.921875 397.167969 485.027344 396.800781 485.210938 C 396.429688 485.398438 396.113281 485.648438 395.851562 485.96875 C 395.589844 486.285156 395.398438 486.644531 395.289062 487.039062 C 395.175781 487.4375 395.144531 487.839844 395.203125 488.25 C 395.796875 493.339844 396.890625 498.324219 398.480469 503.195312 C 400.070312 508.066406 402.125 512.734375 404.644531 517.195312 C 404.753906 517.386719 404.886719 517.5625 405.039062 517.726562 C 405.191406 517.886719 405.359375 518.03125 405.542969 518.15625 C 405.726562 518.28125 405.921875 518.382812 406.128906 518.460938 C 406.335938 518.542969 406.550781 518.597656 406.773438 518.628906 C 406.992188 518.664062 407.210938 518.667969 407.433594 518.652344 C 407.65625 518.632812 407.875 518.59375 408.085938 518.523438 C 408.296875 518.457031 408.5 518.367188 408.691406 518.257812 C 408.886719 518.144531 409.0625 518.011719 409.226562 517.859375 Z M 409.226562 517.859375 " fill-opacity="1" fill-rule="nonzero"/></g></g></g></g><g clip-path="url(#b57006ce59)"><g clip-path="url(#a8effbac08)"><g clip-path="url(#949cb8a4fa)"><g clip-path="url(#099256e844)"><path fill="#000000" d="M 400.589844 479.691406 C 402.988281 479.75 413.757812 478.699219 415.503906 479.359375 C 417.59375 473.097656 420.839844 467.5 425.246094 462.578125 C 425.523438 462.273438 425.757812 461.9375 425.941406 461.566406 C 426.125 461.195312 426.25 460.804688 426.324219 460.398438 C 426.394531 459.992188 426.40625 459.582031 426.363281 459.171875 C 426.316406 458.761719 426.210938 458.367188 426.050781 457.988281 C 425.890625 457.605469 425.679688 457.257812 425.421875 456.9375 C 425.160156 456.617188 424.859375 456.339844 424.515625 456.109375 C 424.175781 455.875 423.808594 455.695312 423.417969 455.570312 C 423.023438 455.441406 422.621094 455.375 422.207031 455.363281 C 409.503906 455.917969 412.878906 462.59375 410.734375 447.0625 C 410.671875 446.605469 410.539062 446.164062 410.335938 445.75 C 410.128906 445.332031 409.863281 444.960938 409.539062 444.628906 C 409.214844 444.300781 408.84375 444.03125 408.433594 443.820312 C 408.019531 443.609375 407.585938 443.46875 407.125 443.398438 C 406.667969 443.328125 406.210938 443.332031 405.753906 443.40625 C 405.292969 443.484375 404.859375 443.632812 404.449219 443.851562 C 404.039062 444.066406 403.675781 444.34375 403.351562 444.679688 C 403.03125 445.015625 402.769531 445.390625 402.570312 445.8125 C 399.929688 451.769531 396.867188 462.527344 397.207031 480.253906 C 398.296875 479.839844 399.425781 479.652344 400.589844 479.691406 Z M 400.589844 479.691406 " fill-opacity="1" fill-rule="nonzero"/></g></g></g></g><g clip-path="url(#1228e57c74)"><g clip-path="url(#8455dfee5e)"><g clip-path="url(#6a3fa703fe)"><g clip-path="url(#8ded224708)"><path fill="#000000" d="M 469.972656 500.59375 C 469.800781 500.972656 469.6875 501.367188 469.640625 501.78125 C 469.59375 502.191406 469.613281 502.601562 469.695312 503.007812 C 469.78125 503.414062 469.925781 503.796875 470.132812 504.15625 C 470.339844 504.515625 470.597656 504.832031 470.902344 505.109375 C 475.128906 508.699219 484.167969 516.21875 488.445312 519.84375 C 488.628906 520 488.828125 520.136719 489.042969 520.25 C 489.253906 520.363281 489.476562 520.457031 489.710938 520.527344 C 489.941406 520.597656 490.175781 520.640625 490.417969 520.664062 C 490.660156 520.6875 490.898438 520.683594 491.140625 520.660156 C 491.382812 520.632812 491.617188 520.582031 491.847656 520.507812 C 492.078125 520.433594 492.296875 520.335938 492.511719 520.21875 C 492.722656 520.101562 492.917969 519.960938 493.101562 519.804688 C 493.285156 519.644531 493.453125 519.472656 493.601562 519.28125 C 501.511719 508.925781 520.824219 483.664062 529.417969 472.785156 C 529.6875 472.441406 529.726562 472.078125 529.539062 471.683594 C 529.355469 471.292969 529.042969 471.09375 528.609375 471.089844 C 526.808594 471.105469 525.015625 471.253906 523.234375 471.535156 C 524.351562 469.746094 526.867188 466.054688 527.972656 464.285156 C 528.175781 463.984375 528.40625 463.707031 528.667969 463.457031 C 528.929688 463.203125 529.210938 462.980469 529.519531 462.789062 C 529.828125 462.597656 530.152344 462.441406 530.492188 462.320312 C 530.832031 462.195312 531.183594 462.109375 531.542969 462.0625 C 531.898438 462.011719 532.261719 462.003906 532.621094 462.03125 C 532.980469 462.058594 533.335938 462.121094 533.683594 462.226562 C 534.027344 462.328125 534.359375 462.464844 534.679688 462.640625 C 534.996094 462.8125 535.292969 463.019531 535.566406 463.253906 C 535.839844 463.488281 536.085938 463.753906 536.304688 464.042969 C 536.519531 464.328125 536.707031 464.636719 536.859375 464.964844 C 537.011719 465.292969 537.128906 465.632812 537.207031 465.988281 C 537.289062 466.339844 537.332031 466.695312 537.335938 467.058594 C 537.339844 467.421875 537.304688 467.78125 537.234375 468.132812 C 537.160156 468.488281 537.054688 468.832031 536.910156 469.164062 C 536.765625 469.496094 536.585938 469.8125 536.375 470.105469 C 536.164062 470.402344 535.925781 470.667969 535.65625 470.914062 C 535.464844 471.128906 535.328125 471.371094 535.238281 471.644531 C 535.148438 471.914062 535.121094 472.195312 535.148438 472.480469 C 535.179688 472.765625 535.261719 473.03125 535.40625 473.277344 C 535.546875 473.527344 535.730469 473.738281 535.960938 473.90625 C 536.191406 474.078125 536.445312 474.195312 536.726562 474.257812 C 537.003906 474.320312 537.285156 474.320312 537.566406 474.265625 C 537.847656 474.210938 538.105469 474.101562 538.339844 473.9375 C 538.574219 473.773438 538.765625 473.566406 538.914062 473.324219 C 547.46875 463.332031 532.222656 451.398438 524.59375 462.09375 L 517.765625 472.523438 C 515.375 473.03125 512.976562 473.628906 510.613281 474.3125 C 510.652344 474.164062 510.6875 474.023438 510.730469 473.867188 C 512.425781 467.335938 515.246094 456.832031 518.863281 443.648438 C 519.03125 443.078125 519.292969 442.550781 519.652344 442.074219 C 520.011719 441.59375 520.441406 441.195312 520.949219 440.875 C 521.453125 440.558594 521.996094 440.335938 522.582031 440.21875 C 523.167969 440.097656 523.753906 440.085938 524.34375 440.179688 C 524.933594 440.273438 525.484375 440.472656 526.003906 440.769531 C 526.519531 441.066406 526.964844 441.449219 527.34375 441.910156 C 527.71875 442.371094 528 442.886719 528.1875 443.453125 C 528.378906 444.019531 528.460938 444.601562 528.433594 445.195312 L 528.265625 447.910156 C 528.257812 448.171875 528.296875 448.429688 528.386719 448.675781 C 528.480469 448.921875 528.613281 449.144531 528.789062 449.335938 C 528.96875 449.53125 529.175781 449.6875 529.414062 449.796875 C 529.648438 449.910156 529.898438 449.976562 530.164062 449.992188 C 530.425781 450.003906 530.683594 449.96875 530.929688 449.886719 C 531.179688 449.800781 531.40625 449.671875 531.605469 449.496094 C 531.800781 449.324219 531.960938 449.121094 532.082031 448.886719 C 532.199219 448.652344 532.269531 448.402344 532.292969 448.140625 L 532.445312 445.410156 C 532.980469 434.949219 517.824219 432.328125 514.980469 442.589844 C 512.261719 452.511719 508.140625 467.664062 506.121094 475.59375 C 498.855469 477.847656 493.515625 479.632812 488.964844 481.519531 L 486.542969 470.425781 C 486.339844 469.476562 485.949219 468.613281 485.367188 467.832031 C 484.789062 467.054688 484.070312 466.433594 483.21875 465.964844 L 476.542969 462.265625 C 476.3125 462.144531 476.0625 462.070312 475.800781 462.042969 C 475.539062 462.015625 475.28125 462.039062 475.03125 462.117188 C 474.777344 462.191406 474.546875 462.308594 474.339844 462.472656 C 474.136719 462.640625 473.96875 462.835938 473.839844 463.066406 C 473.710938 463.296875 473.632812 463.542969 473.597656 463.804688 C 473.566406 464.066406 473.585938 464.324219 473.652344 464.578125 C 473.722656 464.832031 473.835938 465.0625 473.996094 465.273438 C 474.15625 465.480469 474.351562 465.652344 474.578125 465.785156 L 481.269531 469.5 C 481.988281 469.890625 482.429688 470.488281 482.597656 471.289062 L 485.398438 484.085938 C 485.320312 484.164062 480.589844 489.207031 480.589844 489.207031 L 478.390625 479.148438 C 478.179688 478.203125 477.78125 477.34375 477.203125 476.566406 C 476.625 475.789062 475.914062 475.164062 475.070312 474.691406 L 468.390625 470.988281 C 468.160156 470.867188 467.910156 470.792969 467.648438 470.765625 C 467.386719 470.738281 467.132812 470.765625 466.878906 470.839844 C 466.625 470.914062 466.398438 471.035156 466.191406 471.199219 C 465.984375 471.363281 465.816406 471.5625 465.6875 471.789062 C 465.5625 472.019531 465.480469 472.265625 465.449219 472.527344 C 465.414062 472.789062 465.433594 473.046875 465.503906 473.300781 C 465.570312 473.554688 465.6875 473.785156 465.847656 473.996094 C 466.003906 474.203125 466.199219 474.375 466.425781 474.507812 L 473.117188 478.222656 C 473.824219 478.621094 474.269531 479.21875 474.445312 480.015625 C 475.164062 482.972656 476.566406 489.886719 477.242188 492.785156 C 477.175781 492.886719 473.304688 497 473.304688 497 L 471.09375 486.929688 C 470.886719 485.984375 470.496094 485.125 469.917969 484.347656 C 469.34375 483.574219 468.628906 482.953125 467.785156 482.484375 L 461.109375 478.785156 C 460.875 478.660156 460.628906 478.585938 460.367188 478.5625 C 460.105469 478.535156 459.847656 478.558594 459.59375 478.636719 C 459.34375 478.710938 459.113281 478.828125 458.90625 478.996094 C 458.703125 479.160156 458.535156 479.355469 458.40625 479.585938 C 458.277344 479.816406 458.195312 480.0625 458.164062 480.324219 C 458.132812 480.585938 458.152344 480.84375 458.21875 481.097656 C 458.289062 481.351562 458.402344 481.582031 458.5625 481.789062 C 458.722656 482 458.914062 482.171875 459.140625 482.304688 L 465.832031 486.015625 C 466.550781 486.410156 466.992188 487.007812 467.160156 487.808594 Z M 502.878906 487.898438 C 502.96875 487.644531 503.105469 487.421875 503.289062 487.222656 C 503.472656 487.027344 503.683594 486.871094 503.929688 486.757812 C 504.171875 486.648438 504.429688 486.585938 504.699219 486.578125 C 504.964844 486.570312 505.226562 486.613281 505.476562 486.707031 L 508.535156 487.828125 C 508.785156 487.917969 509.007812 488.054688 509.203125 488.234375 C 509.402344 488.414062 509.554688 488.625 509.667969 488.867188 C 509.777344 489.109375 509.839844 489.363281 509.851562 489.632812 C 509.863281 489.898438 509.820312 490.15625 509.730469 490.40625 C 509.636719 490.660156 509.5 490.882812 509.320312 491.078125 C 509.140625 491.277344 508.929688 491.429688 508.6875 491.542969 C 508.445312 491.65625 508.191406 491.71875 507.921875 491.730469 C 507.65625 491.742188 507.398438 491.703125 507.148438 491.609375 L 504.074219 490.476562 C 503.824219 490.386719 503.601562 490.25 503.40625 490.070312 C 503.210938 489.886719 503.054688 489.675781 502.945312 489.433594 C 502.832031 489.195312 502.769531 488.941406 502.757812 488.671875 C 502.746094 488.40625 502.789062 488.148438 502.878906 487.898438 Z M 502.878906 487.898438 " fill-opacity="1" fill-rule="nonzero"/></g></g></g>
    </g>
        <animateTransform attributeName="transform" type="rotate" from="0 400 400" to="120 400 400" dur="1080ms" repeatCount="indefinite"></animateTransform>
    </g>
</svg>